<?xml version="1.0" encoding="utf-8"?>
<!-- Generator: Adobe Illustrator 21.0.0, SVG Export Plug-In . SVG Version: 6.00 Build 0)  -->
<svg version="1.1" id="Layer_1" xmlns="http://www.w3.org/2000/svg" xmlns:xlink="http://www.w3.org/1999/xlink" x="0px" y="0px"
	 viewBox="0 0 200 47" style="enable-background:new 0 0 200 47;" xml:space="preserve">
<g>
	<path d="M48.7,11.3h5.7l-8.9,26.1h-5.2l-8.8-26.1h5.8L43,31.1L48.7,11.3z"/>
	<path d="M70.5,35c-1.6,2-4.1,3-7.4,3c-3.3,0-5.8-1-7.4-3c-1.6-2-2.4-4.4-2.4-7.3c0-2.8,0.8-5.2,2.4-7.2s4.1-3.1,7.4-3.1
		c3.3,0,5.8,1,7.4,3.1c1.6,2,2.4,4.5,2.4,7.2C72.9,30.6,72.1,33,70.5,35z M66.4,32.2c0.8-1,1.2-2.5,1.2-4.5c0-1.9-0.4-3.4-1.2-4.5
		c-0.8-1-1.9-1.6-3.4-1.6s-2.6,0.5-3.4,1.6c-0.8,1-1.2,2.5-1.2,4.5c0,1.9,0.4,3.4,1.2,4.5c0.8,1,1.9,1.6,3.4,1.6
		S65.6,33.3,66.4,32.2z"/>
	<path d="M81.5,15.8h-5.1v-4.7h5.1V15.8z M76.4,18.1h5.1v19.3h-5.1V18.1z"/>
	<path d="M97.8,25c-0.1-0.7-0.3-1.4-0.7-1.9c-0.6-0.8-1.4-1.2-2.6-1.2c-1.7,0-2.9,0.8-3.5,2.5c-0.3,0.9-0.5,2.1-0.5,3.6
		c0,1.4,0.2,2.5,0.5,3.4c0.6,1.6,1.7,2.4,3.4,2.4c1.2,0,2-0.3,2.5-1c0.5-0.6,0.8-1.5,0.9-2.5h5.2c-0.1,1.5-0.7,3-1.7,4.4
		c-1.6,2.2-3.9,3.3-7,3.3c-3.1,0-5.4-0.9-6.9-2.8s-2.2-4.2-2.2-7.2c0-3.3,0.8-5.9,2.4-7.7c1.6-1.8,3.9-2.8,6.7-2.8
		c2.4,0,4.4,0.5,5.9,1.6c1.5,1.1,2.5,3,2.7,5.8H97.8z"/>
	<path d="M118.8,18.5c1.3,0.6,2.5,1.6,3.3,2.9c0.8,1.1,1.3,2.5,1.5,4c0.1,0.9,0.2,2.2,0.2,3.8h-14.1c0.1,1.9,0.8,3.3,2,4.1
		c0.8,0.5,1.7,0.7,2.8,0.7c1.1,0,2.1-0.3,2.8-0.9c0.4-0.3,0.7-0.8,1-1.3h5.2c-0.1,1.1-0.8,2.3-1.9,3.5c-1.7,1.9-4.1,2.8-7.3,2.8
		c-2.6,0-4.8-0.8-6.8-2.4c-2-1.6-2.9-4.2-2.9-7.7c0-3.3,0.9-5.9,2.7-7.7c1.8-1.8,4.1-2.7,6.9-2.7C115.9,17.5,117.4,17.9,118.8,18.5z
		 M111.2,22.8c-0.7,0.7-1.2,1.7-1.3,3h8.7c-0.1-1.3-0.5-2.4-1.3-3c-0.8-0.7-1.8-1-3-1C113,21.7,112,22.1,111.2,22.8z"/>
	<path d="M126.6,11.3h5.5v21.4h13v4.7h-18.5V11.3z"/>
	<path d="M153.4,15.8h-5.1v-4.7h5.1V15.8z M148.2,18.1h5.1v19.3h-5.1V18.1z"/>
	<path d="M173.6,19.2c1.3,1,1.9,2.8,1.9,5.2v13h-5.2V25.6c0-1-0.1-1.8-0.4-2.3c-0.5-1-1.4-1.5-2.8-1.5c-1.7,0-2.9,0.7-3.5,2.2
		c-0.3,0.8-0.5,1.7-0.5,2.9v10.4h-5V18.1h4.9v2.8c0.6-1,1.3-1.7,1.8-2.1c1-0.8,2.3-1.2,3.9-1.2C170.7,17.6,172.4,18.1,173.6,19.2z"
		/>
	<path d="M192.6,18.5c1.3,0.6,2.5,1.6,3.3,2.9c0.8,1.1,1.3,2.5,1.5,4c0.1,0.9,0.2,2.2,0.2,3.8h-14.1c0.1,1.9,0.8,3.3,2,4.1
		c0.8,0.5,1.7,0.7,2.8,0.7c1.1,0,2.1-0.3,2.8-0.9c0.4-0.3,0.7-0.8,1-1.3h5.2c-0.1,1.1-0.8,2.3-1.9,3.5c-1.7,1.9-4.1,2.8-7.3,2.8
		c-2.6,0-4.8-0.8-6.8-2.4c-2-1.6-2.9-4.2-2.9-7.7c0-3.3,0.9-5.9,2.7-7.7c1.8-1.8,4.1-2.7,6.9-2.7C189.7,17.5,191.2,17.9,192.6,18.5z
		 M185,22.8c-0.7,0.7-1.2,1.7-1.3,3h8.7c-0.1-1.3-0.5-2.4-1.3-3c-0.8-0.7-1.8-1-3-1C186.8,21.7,185.8,22.1,185,22.8z"/>
</g>
<path d="M7,43c-1.1,0-2-0.9-2-2V2.5c0-1.1,0.9-2,2-2s2,0.9,2,2V41C9,42.1,8.1,43,7,43z"/>
<path d="M13.3,46.6c-1.1,0-2-0.9-2-2V6.1c0-1.1,0.9-2,2-2s2,0.9,2,2v38.5C15.3,45.7,14.4,46.6,13.3,46.6z"/>
<path d="M19.7,43c-1.1,0-2-0.9-2-2V2.5c0-1.1,0.9-2,2-2s2,0.9,2,2V41C21.7,42.1,20.8,43,19.7,43z"/>
</svg>
